OmnesTransformed	Obruza_Ambience_001				
None	None	None	Right	Omnes stands up from her seat. Numerous cables and wires detaching, a microphone falls from the ceiling in front of her and she begins singing.	None
None	SazaNeutral	Saza	Right	What...	None
None	CaecoNeutral	Caeco	Right	the...	None
DoxSurprised	None	Dox	Left	fuck...	None
None	None	None	Left	From pipes leading to the surface on edges of the room, comes numerous components and corpses, from the Automalords they previously have defeated.	None
DoxSurprised	None	Dox	Left	She's... reviving them?!	None
DoxSurprised	CaecoAngry	Caeco	Right	No.. she's fusing with them.	None
DoxSwordDrawn	SazaNeutral	Saza	Right	Prepare yourself! This is going to be our toughest battle yet!	None
DoxSwordDrawn	None	None	Left	The curtain raises, and the abomination that was once Omnes now stands before them.	None
DoxSwordDrawn	None	Omnes	Right	...TREMBLE BEFORE MIGHT..	None
DoxSwordDrawn	None	None	Left	She slams her arms backward into place, destroying the chair and everything behind her with a forceful blast of air.	None
DoxSwordDrawn	None	None	Left	She dashes with the speed of Celer towards the trio, intentionally missing them, and impacting the dome with the force of Fortis, knocking them down.	None
DoxSwordDrawn	None	Caeco	Right	We need to fight back, now!	None