Novus Palatium	Ambience_Novus_Palatium_Mastered				
DoxAngry	None	Dox	Left	Note to self. Don't EVER follow the dog.	None
DoxAngry	CaecoHappy	Caeco	Right	Woof.	None
DoxAngry	SazaNeutral	Saza	Right	Okay you two, from now on I'm going to guide you so you can avoid as many Automatron encounters as possible.	None
DoxNeutral	SazaNeutral	Saza	Right	It's late at night so most of them should be recharging.	None
DoxNeutral	CaecoNeutral	Caeco	Left	Speaking of which, I'll need to be doing that soon as well.	None
DoxNeutral	SazaNeutral	Saza	Right	You are to head into the alleys between the buildings, and try to avoid crossing large streets where you can.	None
DoxNeutral	SazaNeutral	Saza	Right	Caeco, I will be uploading a track route date to you right now.	Invisibility De Activate
DoxUpset	SazaNeutral	Dox	Left	Greeeaaattt. So now I have no choice but to follow the dog.	None
DoxUpset	CaecoNeutral	Caeco	Right	This path should be good Saza, but if I may suggest something...	None
DoxAngry	SazaNeutral	Dox	Left	Absolutely-fucking-not! We are following Saza's path and that's final!	None
DoxAngry	CaecoNeutral	Caeco	Right	Woof!	None
DoxAngry	SazaNeutral	Saza	Right	Could you keep it down you two?! The Automatrons may be charging, but they still have their sensors on. So be quiet.	None
None	None	None	Right	Dox and Caeco promptly shuts themselves up and quietly sneaks in between the buildings and across small side streets, heading towards the skyscrapers just ahead.	None
DoxConfused	SazaNeutral	Dox	Left	What are those buildings up ahead?	None
DoxConfused	SazaNeutral	Saza	Right	That's called Novus Palatium. It's what's referred to as a business sector around these parts.	None
DoxConfused	CaecoNeutral	Caeco	Right	It's mostly where the mid-high class of Automatrons live and work. Mostly Automatrons who keep this civilzation running.	None
DoxConfused	SazaNeutral	Saza	Right	The entrance is just behind that next building.	None
DoxConfused	SazaNeutral	Dox	Left	It's not the main entrance right? We aren't gunna get ganked by, like, 20 robots, are we?	None
DoxNeutral	CaecoCocky	Caeco	Right	I'm not leading this time. You've got nothing to worry about.	None
None	None	None	Right	Dox and Caeco move towards the small entrance, and just as they reach the game... 	None
None	None	None	Right	...A speeding object from the sky impacts the ground with enormous force, knocking them both back.	None
DoxAngry	CaecoAfraid	Dox	Left	What the fuck?!	None
DoxSurprised	CelerCocky	Celer	Right	MWAHAHAHAHAHA! MISS ME??	None
DoxSurprised	CaecoAngry	Caeco	Right	Not in the slightest!	None
DoxSurprised	CelerAngry	Celer	Right	AWH, YOU DON"T MEAN TO MAKE ME CRY AGAIN DO YOU?	None
DoxAngry	CelerCrying	Celer	Right	WAAAAAAHHHAAAHHAAA!!!	None
DoxAngry	CaecoAngry	Dox and Caeco	Left	AHHH DAMMIT NOT AGAIN.	None
DoxSwordDrawn	CelerNeutral	Celer	Right	Ah. That's much better.	None
DoxSwordDrawn	CelerAngry	Celer	Right	Now, this time, I'm going to finish you off, once. and. for. ALL!!!	None
DoxSwordDrawn	CaecoAngry	Caeco	Right	Dox, we might be able to beat her this time!	None
DoxSwordDrawn	CelerAngry	Dox	Left	Let's destroy this crazy bitch before she screams again.	None
DoxSwordDrawn	CelerAngry	None	Left	Celer dashes towards Dox and Caeco, but Dox and Caeco dash towards her at the same time.	None