ScrapYard1	Purgamentum_Ambience_001				
None	None	None	Left	A messy-looking yet stylish teenage boy runs into a abandoned scrapyard, filled with robots parts and dumpsters. With him, a slick-looking robotic, dog.	None
DoxNeutral	CaecoNeutral	Dox	Left	Alright we're here.	None
None	None	None	Right	They walk closer to the dumpster.	None
DoxNeutral	CaecoNeutral	Caeco	Right	Woof.	None
DoxNeutral	CaecoHappy	Dox	Left	Stop it. You're not a real dog.	None
DoxNeutral	CaecoHappy	Caeco	Right	And you don't have a sense of humour.	None
DoxAngry	CaecoCocky	Dox	Left	...Screw you.	None
DoxAngry	CaecoNeutral	Caeco	Right	Ah, the boy does have a sense of humour.	None
DoxAngry	CaecoNeutral	Dox	Left	....	None
DoxAngry	CaecoNeutral	Caeco	Right	I'll look in the dumpster.	None
DoxAngry	CaecoNeutral	Dox	Left	Yeah, you go and do that.	None
DoxAngry	CaecoNeutral	Caeco	Right	Are you seriously still angry at me, squishy human?	None
DoxCocky	CaecoNeutral	Dox	Left	Oh...Of cooouuursssee not! Why would I. be mad. at you?! Huh? HUH?!	None
DoxNeutral	CaecoNeutral	Caeco	Right	...	None
None	None	None	Left	The robot dog turns around.	None
DoxNeutral	CaecoNeutral	Caeco	Right	Very well.	None
None	None	None	Left	The robot dog jumps into the dumpster. Dox turns around.	Imperious Knight-Like Enemy_Footstep1
DoxAngry	CaecoNeutral	Dox	Left	Oh this is just great, just fan-fucking-tastically ridiculous.	None
DoxAngry	CaecoNeutral	Caeco	Right	I can still hear you. You know, dogs have good sense of hearing.	None
DoxAngry	CaecoNeutral	Dox	Left	Yeah, if you're a real dog.	None
DoxAngry	CaecoNeutral	Caeco	Right	...	None
DoxCocky	CaecoNeutral	Dox	Left	I'm sorry, did I hurt your "feelings"? You robots don't have any, remember?	None
DoxCocky	CaecoNeutral	Caeco	Right	...	None
DoxAngry	CaecoNeutral	Dox	Left	Hey, Dog. Do you hear me? Have you gone "deaf" or something, robot?	None
DoxAngry	CaecoNeutral	Caeco	Right	...	None
DoxAngry	CaecoNeutral	Dox	Left	So much for having a good sense of hearing...	None
DoxAngry	None	None	Right	Dox walks closer to the dumpster.	None
DoxNeutral	CaecoNeutral	Dox	Left	Hey, Dog!	None
DoxConfused	CaecoHappy	Dox	Left	What the-?!	Human Taking Damage_Male_Mid Age
DoxAngry	CaecoHappy	Caeco	Right	It's CA3-C0.	None
DoxConfused	CaecoAnnoyed	Dox	Left	Ca...three... ce- zero? Carezero? Cero?	None
DoxCocky	CaecoNeutral	Caeco	Right	Just call me Caeco, since you squishy humans love aestheticising everything.	None
DoxCocky	CaecoNeutral	Dox	Left	Is that what you've been looking for?	None
DoxCocky	CaecoNeutral	Caeco	Right	Not quite. But close.	None
DoxCocky	CaecoNeutral	Caeco	Right	Take it.	None
DoxConfused	CaecoNeutral	Dox	Left	What in the name of Vae is this?	None
DoxAngry	CaecoNeutral	Dox	Left	W-WHAT'S GOING ON?! DOG, WHAT HAVE YOU DONE?!	None
DoxAngry	CaecoNeutral	Dox	Left	Just, relax.	None
None	None	None	Left	The light coming from glowing orange object envelops the boy as it gets brighter and brighter. 	None
None	None	None	Left	Soon after, the orange light disperses. The messy-looking boy is now in a stylish, futuristic outfit, holding an orange plasma sword and shield.	None
DoxSurprised	CaecoNeutral	Dox	Left	O-kay... Wow. A wardrobe change, eh?	None
DoxHappy	CaecoCocky	Caeco	Right	It's an ancient weapon you squishy humans use this to fight the Automatrons centuries ago.	None
DoxHappy	CaecoNeutral	Dox	Left	This is so fucking badass.	None
DoxHappy	CaecoNeutral	Dox	Left	...	None
DoxNeutral	CaecoNeutral	Dox	Left	Robots.	None
DoxNeutral	CaecoAnnoyed	Caeco	Right	Excuse me?	None
DoxNeutral	CaecoNeutral	Dox	Left	You mean when we were fighting you ROBOTS.	None
DoxNeutral	CaecoNeutral	Caeco	Right	...	None
DoxAngry	CaecoNeutral	Dox	Left	Why did you save me back then? What's this game you're playing with me right now?	None
DoxAngry	CaecoAnnoyed	Caeco	Right	What can I do to make you trust me, squishy human?	None
DoxAngry	CaecoNeutral	Dox	Left	By letting me die back then.	None
DoxNeutral	CaecoNeutral	Caeco	Right	...	None
DoxNeutral	CaecoNeutral	Caeco	Right	Very well.	None
None	None	None	Left	Caeco assumes a fighting position.	None
DoxConfused	CaecoAngry	Dox	Left	What are you doing?	None
DoxConfused	CaecoAngry	Caeco	Right	I'm going to kill you.	None
DoxConfused	CaecoAngry	Dox	Left	...You're joking, right?	None
DoxConfused	CaecoAngry	Caeco	Right	Well, you said it yourself, you're not interested in living anymore. So, I want to kill you.	None
DoxNeutral	CaecoAngry	Dox	Left	For a "household robot dog" back in The Era, you're pretty foxy. You're not built to fight.	None
DoxNeutral	CaecoAngry	Caeco	Right	And you squishy human are?	None
DoxSwordDrawn	CaecoAngry	Dox	Left	I am now. Back off.	None
DoxSwordDrawn	CaecoAngry	Caeco	Right	Make me.	None