ScrapYard1	Purgamentum_Ambience_001				
DoxSwordDrawn	CaecoAngry	Dox	Left	Not bad for a "household robot dog". Someone got an upgrade.	None
DoxSwordDrawn	CaecoAngry	Caeco	Right	Not bad for a squishy human who wants to kill himself in the first place.	None
DoxSwordDrawn	CaecoNeutral	Caeco	Right	You fighting back suggest that you still value your life.	None
DoxUpset	CaecoNeutral	Dox	Left	...Shut up.	None
DoxUpset	CaecoNeutral	Dox	Left	And stop fucking calling me "human". It's Dox, okay?	None
None	None	???????	Right	MAGNIFICUS.	None
DoxSurprised	CaecoAngry	Caeco	Right	!!!!!!	None
None	None	None	Right	A couple of silhouetted robots stand where Dox and Caeco came from. 	None
None	None	???????	Right	SUBARASHII.	None
None	None	???????	Right	VOBSHE KLASSNAYA.	None
DoxSwordDrawn	None	Dox	Left	Who goes there?	None
None	CelerNeutral	None	Right	The mysterious robot steps out of the light.	None
None	CelerNeutral	???????	Right	I don't know what is going on, but this looks like fun. Can I join in?	None
DoxSwordDrawn	CaecoAngry	Dox	Left	I knew it. You tricked me.	None
DoxSwordDrawn	CaecoAngry	Caeco	Right	I didn't. We need to get away, RIGHT NOW. She's too strong for either of us at this moment.	None
DoxSwordDrawn	CaecoAngry	Dox	Left	So, you know her?	None
None	CelerNeutral	???????	Right	Caeco, I told you not to come to this part of Purgamentum anymore. You are not authorized to be here.	None
DoxSwordDrawn	CaecoAngry	Caeco	Right	I do as I please, Celer. I have no strings on me. Unlike you.	None
DoxSwordDrawn	CelerNeutral	Celer	Right	Ouch, you hurt my "feelings". I guess this when I am supposed to cry.	None
DoxSwordDrawn	CelerCocky	Celer	Right	Alright.	None
DoxSwordDrawn	CelerCrying	Celer	Right	WAAAAAAAAAAAAAAAAHHHH~!	None
DoxSurprised	CaecoAnnoyed	Dox	Left	AAAARRRGGGHHH!!!! MY EARS!!!	None
DoxSwordDrawn	CaecoAngry	Celer	Right	...Done. I feel a lot better now.	None
DoxSwordDrawn	CaecoAngry	Dox	Left	What the hell?	None
DoxSwordDrawn	CaecoAngry	Caeco	Right	Dox, WE HAVE TO RETREAT. You can't fight an Automalord yet.	None
DoxSwordDrawn	CaecoAngry	Dox	Left	Fuck that.	Lazer Reload 