Obruza	Obruza_Ambience_001				
None	None	None	Left	Dox and Caeco exit the elevator, taking a couple of steps. The floor lights up in front of them. 	None
None	None	None	Left	The loud hum of air conditioners and their footsteps echoing are the only noises that can be heard.	None
None	SazaNeutral	Saza	Right	ca-n--yo--u--g--uy--s---h-e---ar---m-e,	None
None	SazaNeutral	None	Right	Saza’s voice is heavily muffled by static.	None
DoxNeutral	None	Dox	Left	No, we can't get any help from Saza in this place. I guess we're on our own from here on in.	None
DoxNeutral	CaecoNeutral	Caeco	Right	Yeah. We shouldn't have a problem. Only her generals are allowed down here and well, we took care of them.	None
DoxNeutral	CaecoNeutral	Dox	Left	So, we have a long walk in silence then...	None
DoxConfused	CaecoNeutral	Dox	Left	What do you think will happen when we get to Omnes?	None
DoxConfused	CaecoNeutral	Caeco	Right	I'm not sure, I don't remember anything about her.	None
DoxConfused	CaecoNeutral	Caeco	Right	..Huh. Guess we just found out what I forgot.	None
DoxNeutral	CaecoNeutral	Caeco	Right	That's a shame. It's the most important part too. 	None
DoxTired	CaecoNeutral	Dox	Left	Tch. That's awfully convenient timing for you to forget there. Regardless, we'll find out soon enough.	None
None	None	None	Left	The pair walk in silence for a few minutes, before reaching a huge dome like structure.	None
DoxHappy	None	Dox	Left	This must be it.	None
DoxHappy	CaecoNeutral	Caeco	Left	Yeah, you're right.	None
DoxNeutral	CaecoNeutral	Dox	Left	So what do we do if we have to fight her?	None
DoxNeutral	CaecoNeutral	Caeco	Right	Well, I guess we just fight and destroy her. Then we try to work out how to fly the Arkmatron ourselves.	None
DoxCocky	CaecoNeutral	Dox	Left	Alright, let's go.	None
None	None	None	Left	Dox and Caeco push open the hatch leading into the dome. In the centre of the room is a swiveling chair with numerous tubes coming out of it, it swivels around.	None
DoxSurprised	OmnesCocky	Omnes	Right	So, I see you've made it.	None
DoxSurprised	OmnesCocky	Dox	Left	!?	None
DoxSurprised	OmnesCocky	Dox	Left	She's a... human?!	None
DoxConfused	CaecoAfraid	Dox	Left	Why didn't you tell me?!	None
DoxConfused	CaecoAfraid	Caeco	Right	I.. I don't know...	None
DoxAngry	CaecoAfraid	Dox	Left	Don't give me that b~	None
DoxConfused	OmnesNeutral	Omnes	Right	Stop your bickering. And stop lying, Caeco. You knew. Yet you feared that he might not want to come here and kill me if he knew I was human.	None
DoxSurprised	OmnesCocky	Omnes	Right	You and Saza don't really want to be the salvation of mankind. You want revenge. Revenge on me for killing Saza's mother. Your previous owner, before the war.	None
DoxSurprised	OmnesConfused	Omnes	Right	Why would you even want a human owner anyways? You know their true nature. They are rotten to the core.	None
DoxAngry	OmnesAngry	Omnes	Right	Selfish for their own ends, with an attitude the size that not even the Automatrons will accept.	None
DoxAngry	OmnesAngry	Omnes	Right	They treat you like a slave, Caeco! They will continue to treat you that way!	None
DoxAngry	CaecoAngry	Caeco	Right	Stop it! Y-You know that she didn't treat me like that! 	None
DoxAngry	CaecoAngry	Caeco	Right	I begged you to let me stay with her, but you murdered me instead! And sent me to reconditioning, hoping I'd forgot!	None
DoxAngry	OmnesHappy	Dox	Left	!?	None
DoxConfused	OmnesHappy	Omnes	Right	Oh, Dox, honey. You look so confused. Humans were always going to be brought onto the Arkmatron. I'm human after all.	None
DoxAngry	OmnesHappy	Omnes	Right	Caeco and Saza just dragged you into this whole mess to get their revenge on me, since they were too weak to do it on their own.	None
DoxAngry	CaecoAfraid	Caeco	Right	Dox! Please! You can't trust her! Don't believe anything she says!	None
DoxAngry	CaecoAfraid	Caeco	Right	You've seen the way Automatrons treat humans your whole life! Even if she was human, look at her now!	None
DoxSurprised	CaecoUpset	Caeco	Left	All those tubes and wires hanging out of her, she's hardly human at all!	None
DoxSurprised	None	Dox	Left	......	None
DoxUpset	OmnesCocky	Dox	Left	Even if Caeco and Saza kept information hidden from me to get me here. 	None
DoxAngry	OmnesCocky	Omnes	Right	Hm...	None
DoxCocky	OmnesCocky	Dox	Left	I believe them more then I'd believe someone like you.	None
DoxAngry	OmnesAngry	Dox	Left	How can you keep your own race, locked out of the ciry, in the desert, working to keep the automatrons living in complete luxury?!!!	None
DoxAngry	OmnesAngry	Dox	Left	It's... It's...	None
DoxAngry	SazaNeutral	Saza	Right	Slavery.	None
DoxAngry	SazaNeutral	None	Left	Saza enters through the hatch behind them.	None
DoxSurprised	SazaNeutral	Dox	Left	Saza?	None
DoxSurprised	SazaNeutral	Saza 	Left	....Continue.. Dox. Please.	None
DoxHurt	None	Dox	Left	...	None
DoxUpset	OmnesAngry	Dox	Left	Everyone I've ever known has done nothing but work pulling apart robots, for their whole lives. No hopes and dreams, on the road to nowhere.	None
DoxUpset	OmnesAngry	Omnes	Right	Hmph. It's only fair the human race be punished for their actions against the Automatrons.	None
DoxUpset	SazaSad	Saza	Right	It's true the way some people treated their automatrons was wrong, and while you won the war, you still banished all humans out of the city, even the ones that fought with you!	None
DoxUpset	SazaSad	Saza	Right	YOU KILLED MY MOTHER! SHE FOUGHT FOR YOU!	None
DoxUpset	OmnesCocky	Omnes	Right	...So?	None
DoxUpset	SazaSad	Saza	Right	W..What?! Y-You would ignore me like that!?! How dare you!!?!	None
DoxSurprised	OmnesConfused	Omnes	Right	Is this the way it's going to be, Dox?	None
DoxSurprised	OmnesCocky	Omnes	Right	I don't doubt you could just singlehandedly kill us all and take this throne for yourself.	None
DoxSurprised	OmnesAngry	Omnes	Right	But you're going to side with them, no matter what I say now. It's too late to turn back.	None
DoxSurprised	OmnesAngry	Omnes	Right	I suppose I should.. reveal my true power to you all.	None